Getting Started with wqbc • wqbc
…
Fraser Data

The data used in this demonstration are from the Fraser River basin (data available here under the Candian Open Government License.

To load the wqbc package and the fraser data run

library(wqbc)
data(fraser)

The fraser data is organized so that each row corresponds to one observation.

library(tibble) # for prettier printing of tibbles
print(fraser)
#> # A tibble: 242,631 x 8
#>    SiteID    Date       Variable          Value Units Site             Lat  Long
#>    <chr>     <date>     <chr>             <dbl> <chr> <chr>          <dbl> <dbl>
#>  1 BC08KA00… 2000-01-12 ALKALINITY TOT… 59.1    MG/L  FRASER RIVER …  53.0 -119.
#>  2 BC08KA00… 2000-01-12 ALUMINUM TOTAL   0.061  MG/L  FRASER RIVER …  53.0 -119.
#>  3 BC08KA00… 2000-01-12 BARIUM EXTRACT… 14.5    UG/L  FRASER RIVER …  53.0 -119.
#>  4 BC08KA00… 2000-01-12 BARIUM TOTAL     0.0141 MG/L  FRASER RIVER …  53.0 -119.
#>  5 BC08KA00… 2000-01-12 BERYLLIUM EXTR…  0      UG/L  FRASER RIVER …  53.0 -119.
#>  6 BC08KA00… 2000-01-12 BERYLLIUM TOTAL  0      UG/L  FRASER RIVER …  53.0 -119.
#>  7 BC08KA00… 2000-01-12 BORON EXTRACTA…  0.77   UG/L  FRASER RIVER …  53.0 -119.
#>  8 BC08KA00… 2000-01-12 CADMIUM EXTRAC…  0.007  UG/L  FRASER RIVER …  53.0 -119.
#>  9 BC08KA00… 2000-01-12 CADMIUM TOTAL    0      MG/L  FRASER RIVER …  53.0 -119.
#> 10 BC08KA00… 2000-01-12 CALCIUM EXTRAC… 19.7    MG/L  FRASER RIVER …  53.0 -119.
#> # … with 242,621 more rows

As the fraser data is a large dataset (242631 rows) we’ll just use the data from 2012.

data2012 <- dplyr::filter(fraser, lubridate::year(Date) == 2012)
data2012
#> # A tibble: 17,881 x 8
#>    SiteID    Date       Variable         Value Units Site              Lat  Long
#>    <chr>     <date>     <chr>            <dbl> <chr> <chr>           <dbl> <dbl>
#>  1 BC08KA00… 2012-01-24 ALKALINITY TOT… 64.1   MG/L  FRASER RIVER A…  53.0 -119.
#>  2 BC08KA00… 2012-01-24 ALUMINUM TOTAL  42     UG/L  FRASER RIVER A…  53.0 -119.
#>  3 BC08KA00… 2012-01-24 ANTIMONY TOTAL   0.009 UG/L  FRASER RIVER A…  53.0 -119.
#>  4 BC08KA00… 2012-01-24 ARSENIC TOTAL    0.12  UG/L  FRASER RIVER A…  53.0 -119.
#>  5 BC08KA00… 2012-01-24 BARIUM TOTAL    15     UG/L  FRASER RIVER A…  53.0 -119.
#>  6 BC08KA00… 2012-01-24 BERYLLIUM TOTAL  0     UG/L  FRASER RIVER A…  53.0 -119.
#>  7 BC08KA00… 2012-01-24 BISMUTH TOTAL    0     UG/L  FRASER RIVER A…  53.0 -119.
#>  8 BC08KA00… 2012-01-24 BORON TOTAL      1.6   UG/L  FRASER RIVER A…  53.0 -119.
#>  9 BC08KA00… 2012-01-24 CADMIUM TOTAL    0.003 UG/L  FRASER RIVER A…  53.0 -119.
#> 10 BC08KA00… 2012-01-24 CALCIUM DISSOL… 20     MG/L  FRASER RIVER A…  53.0 -119.
#> # … with 17,871 more rows
…
As a result of the standardization, the 2012 Fraser dataset has been reduced to 9983 observations that can in principle be assigned water quality limits by the wqbc package. However, first it is necessary to deal with multiple observations by cleaning the data.

as_tibble(data2012)
#> # A tibble: 9,983 x 8
#>    SiteID    Date       Variable       Value Units Site                Lat  Long
#>    <chr>     <date>     <chr>          <dbl> <chr> <chr>             <dbl> <dbl>
#>  1 BC08KA00… 2012-01-24 Alkalinity To…  64.1 mg/L  FRASER RIVER AT …  53.0 -119.
#>  2 BC08KA00… 2012-04-11 Alkalinity To…  65.1 mg/L  FRASER RIVER AT …  53.0 -119.
#>  3 BC08KA00… 2012-04-18 Alkalinity To…  63.5 mg/L  FRASER RIVER AT …  53.0 -119.
#>  4 BC08KA00… 2012-05-01 Alkalinity To…  59.5 mg/L  FRASER RIVER AT …  53.0 -119.
#>  5 BC08KA00… 2012-05-16 Alkalinity To…  59.5 mg/L  FRASER RIVER AT …  53.0 -119.
#>  6 BC08KA00… 2012-05-30 Alkalinity To…  58.8 mg/L  FRASER RIVER AT …  53.0 -119.
#>  7 BC08KA00… 2012-06-11 Alkalinity To…  56.5 mg/L  FRASER RIVER AT …  53.0 -119.
#>  8 BC08KA00… 2012-07-10 Alkalinity To…  43.2 mg/L  FRASER RIVER AT …  53.0 -119.
#>  9 BC08KA00… 2012-07-16 Alkalinity To…  40.8 mg/L  FRASER RIVER AT …  53.0 -119.
#> 10 BC08KA00… 2012-07-25 Alkalinity To…  40.9 mg/L  FRASER RIVER AT …  53.0 -119.
#> # … with 9,973 more rows

Cleaning Data

After standardization, it is necessary to ensure that there are only single values for each date for a given variable and this is done using the function clean_wqdata().

data2012 <- clean_wqdata(data2012, by = "SiteID")
#> Cleaning water quality data...
#> Identified 0 outliers in water quality data.
#> Cleansed water quality data.

The end result is a data frame with 8950 rows each of which represents the average value for a single variable on a particular date at an individual SiteID.

as_tibble(data2012)
#> # A tibble: 8,950 x 7
#>    SiteID     Date       Variable         Value Units Outlier DetectionLimit
#>    <chr>      <date>     <chr>            <dbl> <chr> <lgl>            <dbl>
#>  1 BC08KA0007 2012-01-24 Alkalinity Total  64.1 mg/L  FALSE               NA
#>  2 BC08KA0007 2012-04-11 Alkalinity Total  65.1 mg/L  FALSE               NA
#>  3 BC08KA0007 2012-04-18 Alkalinity Total  63.5 mg/L  FALSE               NA
#>  4 BC08KA0007 2012-05-01 Alkalinity Total  59.5 mg/L  FALSE               NA
#>  5 BC08KA0007 2012-05-16 Alkalinity Total  59.5 mg/L  FALSE               NA
#>  6 BC08KA0007 2012-05-30 Alkalinity Total  58.8 mg/L  FALSE               NA
#>  7 BC08KA0007 2012-06-11 Alkalinity Total  56.5 mg/L  FALSE               NA
#>  8 BC08KA0007 2012-07-10 Alkalinity Total  43.2 mg/L  FALSE               NA
#>  9 BC08KA0007 2012-07-16 Alkalinity Total  40.8 mg/L  FALSE               NA
#> 10 BC08KA0007 2012-07-25 Alkalinity Total  40.9 mg/L  FALSE               NA
#> # … with 8,940 more rows
…
The final result is a data frame with 2602 rows each of which has an upper water quality limit.

as_tibble(data2012)
#> # A tibble: 2,602 x 8
#>    SiteID  Date       Variable     Value UpperLimit Units Outlier DetectionLimit
#>    <chr>   <date>     <chr>        <dbl>      <dbl> <chr> <lgl>            <dbl>
#>  1 BC08KA… 2012-01-24 Arsenic T… 0.12          5    ug/L  NA                  NA
#>  2 BC08KA… 2012-01-24 Chloride … 0           600    mg/L  NA                  NA
#>  3 BC08KA… 2012-01-24 Cobalt To… 0.2         110    ug/L  NA                  NA
#>  4 BC08KA… 2012-01-24 Iron Total 0.0303        1    mg/L  NA                  NA
#>  5 BC08KA… 2012-01-24 Lead Total 0.01         61.2  ug/L  NA                  NA
#>  6 BC08KA… 2012-01-24 Manganese… 0.0112        1.42 mg/L  NA                  NA
#>  7 BC08KA… 2012-01-24 Molybdenu… 0.00007       2    mg/L  NA                  NA
#>  8 BC08KA… 2012-01-24 Silver To… 0             0.1  ug/L  NA                  NA
#>  9 BC08KA… 2012-01-24 Zinc Total 0.3          33    ug/L  NA                  NA
#> 10 BC08KA… 2012-04-11 Arsenic T… 0.1           5    ug/L  NA                  NA
#> # … with 2,592 more rows
…
